Retrieve list of assets available to specific user — kobo_list_assets • odktools
…
      base_url
      KoBo Toolbox URL. Default is https://kf.kobotoolbox.org.

      auth_mode
      Password or token? Default is token.

    Value

    A list of assets available to specific user.

    Examples

kobo_auth_token(token = "e9b39da128ff1b0bd4366b015c9e8ebad35b5fea")
kobo_list_assets()
#> # A tibble: 27 x 22
#>    url   date_modified date_created owner summary$geo $labels $columns
#>    <chr> <chr>         <chr>        <chr> <lgl>       <list>  <list>  
#>  1 http… 2014-12-31T0… 2014-12-29T… http… FALSE       <chr [… <chr [1…
#>  2 http… 2014-12-31T0… 2014-12-28T… http… FALSE       <chr [… <chr [9…
#>  3 http… 2014-12-29T1… 2014-12-29T… http… FALSE       <chr [… <chr [1…
#>  4 http… 2014-12-28T2… 2014-12-22T… http… FALSE       <chr [… <chr [9…
#>  5 http… 2014-12-23T0… 2014-12-22T… http… FALSE       <chr [… <chr [4…
#>  6 http… 2014-12-22T0… 2014-12-22T… http… FALSE       <chr [… <chr [4…
#>  7 http… 2014-12-22T0… 2014-12-22T… http… FALSE       <chr [… <chr [4…
#>  8 http… 2014-12-22T0… 2014-12-22T… http… FALSE       <chr [… <chr [4…
#>  9 http… 2014-12-22T0… 2014-12-22T… http… FALSE       <chr [… <chr [4…
#> 10 http… 2014-12-22T0… 2014-12-22T… http… FALSE       <chr [… <chr [5…
#> # … with 17 more rows, and 20 more variables: $languages <list>,
#> #   $row_count <int>, $default_translation <lgl>, owner__username <chr>,
#> #   parent <chr>, uid <chr>, tag_string <chr>, settings <df[,0]>, kind <chr>,
#> #   name <chr>, asset_type <chr>, version_id <chr>, has_deployment <lgl>,
#> #   deployed_version_id <chr>, deployment__identifier <chr>,
#> #   deployment__active <lgl>, deployment__submission_count <int>,
#> #   permissions <list>, downloads <list>, data <chr>
…
