Retrieve list of datasets available to specific user — ona_list_data • odktools
…
      base_url
      ONA URL. Default is https://api.ona.io.

      auth_mode
      Password or token? Default is token.

    Value

    A tibble of datasets available to specific user.

    Examples

ona_list_data()
#> # A tibble: 31 x 5
#>        id id_string    title                         description url            
#>     <int> <chr>        <chr>                         <chr>       <chr>          
#>  1  86891 mamCoverage  TSFP Coverage Survey          ""          https://api.on…
#>  2 111072 coverageAdv… Coverage Advisor              ""          https://api.on…
#>  3 125038 cbtTest      CBT Test assessment           ""          https://api.on…
#>  4 197358 anthroFlags  Anthropometry Survey with WH… ""          https://api.on…
#>  5 291830 stdround1    Standardisation Test Round 1  ""          https://api.on…
#>  6 291831 stdround2    Standardisation Test Round 2  ""          https://api.on…
#>  7 322149 ramOP        Rapid nutrition and needs as… ""          https://api.on…
#>  8 333532 liberiaCove… Liberia Coverage Survey       ""          https://api.on…
#>  9 333533 liberiaVill… Liberia Coverage Survey Vill… ""          https://api.on…
#> 10 368135 ramOP_1      Rapid nutrition and needs as… ""          https://api.on…
#> # … with 21 more rows
…
